Jared Petry - Tuning an XGBoost Machine Learning Model to Predict Eel Presence
…
# define workflow for final fit
stoch_tune_wf <- workflow() |> 
  add_model(eel_boost_final) |> 
  add_recipe(eel_recipe)

final_eel_fit <- last_fit(eel_boost_final, 
                          Angaus ~ ., 
                          eel_split)

final_eel_fit$.predictions

[[1]]
# A tibble: 301 × 6
   .pred_0 .pred_1  .row .pred_class Angaus .config             
     <dbl>   <dbl> <int> <fct>       <fct>  <chr>               
 1   0.194 0.806       2 1           1      Preprocessor1_Model1
 2   0.812 0.188       4 0           0      Preprocessor1_Model1
 3   0.986 0.0136      6 0           0      Preprocessor1_Model1
 4   0.551 0.449      10 0           1      Preprocessor1_Model1
 5   0.968 0.0321     11 0           0      Preprocessor1_Model1
 6   0.996 0.00419    15 0           0      Preprocessor1_Model1
 7   0.215 0.785      18 1           1      Preprocessor1_Model1
 8   0.774 0.226      20 0           0      Preprocessor1_Model1
 9   0.969 0.0314     22 0           0      Preprocessor1_Model1
10   0.985 0.0155     28 0           0      Preprocessor1_Model1
# … with 291 more rows
# ℹ Use `print(n = ...)` to see more rows
…
